…
```r
missing_values <- training_raw %>%
      gather(key = "key", value = "val") %>%
      mutate(is.missing = is.na(val)) %>%
      group_by(key, is.missing) %>%
      summarize(num_missing = n()) %>%
      filter(is.missing == TRUE) %>%
      select(-is.missing) %>%
      arrange(desc(num_missing))
missing_values
```

```
## # A tibble: 100 x 2
## # Groups:   key [100]
##    key                      num_missing
##    <chr>                          <int>
##  1 amplitude_pitch_arm            19216
##  2 amplitude_pitch_belt           19216
##  3 amplitude_pitch_dumbbell       19216
##  4 amplitude_pitch_forearm        19216
##  5 amplitude_roll_arm             19216
##  6 amplitude_roll_belt            19216
##  7 amplitude_roll_dumbbell        19216
##  8 amplitude_roll_forearm         19216
##  9 amplitude_yaw_arm              19216
## 10 amplitude_yaw_belt             19216
## # … with 90 more rows
```
…
